Copyright 1986-1999, 2001-2013 Xilinx, Inc. All Rights Reserved.
---------------------------------------------------------------------------------------------------------------------------------
| Tool Version : Vivado v.2013.4 (win64) Build 353583 Mon Dec  9 17:49:19 MST 2013
| Date         : Tue May 20 16:30:13 2014
| Host         :  running 64-bit Service Pack 1  (build 7601)
| Command      : report_utilization -file ZynqDesign_wrapper_utilization_placed.rpt -pb ZynqDesign_wrapper_utilization_placed.pb
| Design       : ZynqDesign_wrapper
| Device       : xc7z020
| Design State : Fully Placed
---------------------------------------------------------------------------------------------------------------------------------

Utilization Design Information

Table of Contents
-----------------
1. Slice Logic
2. Slice Logic Distribution
3. Memory
4. DSP
5. IO and GTX Specific
6. Clocking
7. Specific Feature
8. Primitives
9. Black Boxes
10. Instantiated Netlists

1. Slice Logic
--------------

+----------------------------+------+-------+-----------+-------+
|          Site Type         | Used | Loced | Available | Util% |
+----------------------------+------+-------+-----------+-------+
| Slice LUTs                 |  795 |     0 |     53200 |  1.49 |
|   LUT as Logic             |  733 |     0 |     53200 |  1.37 |
|   LUT as Memory            |   62 |     0 |     17400 |  0.35 |
|     LUT as Distributed RAM |    0 |     0 |           |       |
|     LUT as Shift Register  |   62 |     0 |           |       |
| Slice Registers            |  998 |     0 |    106400 |  0.93 |
|   Register as Flip Flop    |  998 |     0 |    106400 |  0.93 |
|   Register as Latch        |    0 |     0 |    106400 |  0.00 |
| F7 Muxes                   |    1 |     0 |     26600 | <0.01 |
| F8 Muxes                   |    0 |     0 |     13300 |  0.00 |
+----------------------------+------+-------+-----------+-------+


2. Slice Logic Distribution
---------------------------

+-------------------------------------------------------------+----------+-------+-----------+-------+
|                          Site Type                          |   Used   | Loced | Available | Util% |
+-------------------------------------------------------------+----------+-------+-----------+-------+
| Slice                                                       |      341 |     0 |     13300 |  2.56 |
| LUT as Logic                                                |      733 |     0 |     53200 |  1.37 |
|   using O5 output only                                      |        0 |       |           |       |
|   using O6 output only                                      |      509 |       |           |       |
|   using O5 and O6                                           |      224 |       |           |       |
| LUT as Memory                                               |       62 |     0 |     17400 |  0.35 |
|   LUT as Distributed RAM                                    |        0 |     0 |           |       |
|   LUT as Shift Register                                     |       62 |     0 |           |       |
|     using O5 output only                                    |        0 |       |           |       |
|     using O6 output only                                    |       54 |       |           |       |
|     using O5 and O6                                         |        8 |       |           |       |
| LUT Flip Flop Pairs                                         |     1003 |     0 |     53200 |  1.88 |
|   fully used LUT-FF pairs                                   |      538 |       |           |       |
|   LUT-FF pairs with unused LUT                              |      208 |       |           |       |
|   LUT-FF pairs with unused Flip Flop                        |      257 |       |           |       |
| Unique Control Sets                                         |       48 |       |           |       |
| Minimum number of registers lost to control set restriction | 90(Lost) |       |           |       |
+-------------------------------------------------------------+----------+-------+-----------+-------+


3. Memory
---------

+----------------+------+-------+-----------+-------+
|    Site Type   | Used | Loced | Available | Util% |
+----------------+------+-------+-----------+-------+
| Block RAM Tile |    0 |     0 |       140 |  0.00 |
|   RAMB36/FIFO* |    0 |     0 |       140 |  0.00 |
|   RAMB18       |    0 |     0 |       280 |  0.00 |
+----------------+------+-------+-----------+-------+
* Note: Each Block RAM Tile only has one FIFO logic available and therefore can accommodate only one FIFO36E1 or one FIFO18E1. However, if a FIFO18E1 occupies a Block RAM Tile, that tile can still accommodate a RAMB18E1


4. DSP
------

+-----------+------+-------+-----------+-------+
| Site Type | Used | Loced | Available | Util% |
+-----------+------+-------+-----------+-------+
| DSPs      |    0 |     0 |       220 |  0.00 |
+-----------+------+-------+-----------+-------+


5. IO and GTX Specific
----------------------

+-----------------------------+------+-------+-----------+--------+
|          Site Type          | Used | Loced | Available |  Util% |
+-----------------------------+------+-------+-----------+--------+
| Bonded IOB                  |   16 |    16 |       200 |   8.00 |
|   IOB Master Pads           |    7 |       |           |        |
|   IOB Slave Pads            |    5 |       |           |        |
| Bonded IPADs                |    0 |     0 |         2 |   0.00 |
| Bonded IOPADs               |  130 |   130 |       130 | 100.00 |
| IBUFGDS                     |    0 |     0 |       192 |   0.00 |
| IDELAYCTRL                  |    0 |     0 |         4 |   0.00 |
| IN_FIFO                     |    0 |     0 |        16 |   0.00 |
| OUT_FIFO                    |    0 |     0 |        16 |   0.00 |
| PHASER_REF                  |    0 |     0 |         4 |   0.00 |
| PHY_CONTROL                 |    0 |     0 |         4 |   0.00 |
| PHASER_OUT/PHASER_OUT_PHY   |    0 |     0 |        16 |   0.00 |
| PHASER_IN/PHASER_IN_PHY     |    0 |     0 |        16 |   0.00 |
| IDELAYE2/IDELAYE2_FINEDELAY |    0 |     0 |       200 |   0.00 |
| ODELAYE2/ODELAYE2_FINEDELAY |    0 |     0 |         0 |   0.00 |
| IBUFDS_GTE2                 |    0 |     0 |         0 |   0.00 |
| ILOGIC                      |    0 |     0 |       200 |   0.00 |
| OLOGIC                      |    0 |     0 |       200 |   0.00 |
+-----------------------------+------+-------+-----------+--------+


6. Clocking
-----------

+------------+------+-------+-----------+-------+
|  Site Type | Used | Loced | Available | Util% |
+------------+------+-------+-----------+-------+
| BUFGCTRL   |    1 |     0 |        32 |  3.12 |
| BUFIO      |    0 |     0 |        16 |  0.00 |
| MMCME2_ADV |    0 |     0 |         4 |  0.00 |
| PLLE2_ADV  |    0 |     0 |         4 |  0.00 |
| BUFMRCE    |    0 |     0 |         8 |  0.00 |
| BUFHCE     |    0 |     0 |        72 |  0.00 |
| BUFR       |    0 |     0 |        16 |  0.00 |
+------------+------+-------+-----------+-------+


7. Specific Feature
-------------------

+-------------+------+-------+-----------+-------+
|  Site Type  | Used | Loced | Available | Util% |
+-------------+------+-------+-----------+-------+
| BSCANE2     |    0 |     0 |         4 |  0.00 |
| CAPTUREE2   |    0 |     0 |         1 |  0.00 |
| DNA_PORT    |    0 |     0 |         1 |  0.00 |
| EFUSE_USR   |    0 |     0 |         1 |  0.00 |
| FRAME_ECCE2 |    0 |     0 |         1 |  0.00 |
| ICAPE2      |    0 |     0 |         2 |  0.00 |
| STARTUPE2   |    0 |     0 |         1 |  0.00 |
| XADC        |    0 |     0 |         1 |  0.00 |
+-------------+------+-------+-----------+-------+


8. Primitives
-------------

+----------+------+
| Ref Name | Used |
+----------+------+
| FDRE     |  919 |
| LUT3     |  382 |
| LUT6     |  204 |
| BIBUF    |  130 |
| LUT4     |  127 |
| LUT5     |  125 |
| LUT2     |  103 |
| FDSE     |   79 |
| SRLC32E  |   47 |
| CARRY4   |   26 |
| SRL16E   |   23 |
| LUT1     |   16 |
| OBUF     |    8 |
| IBUF     |    8 |
| PS7      |    1 |
| MUXF7    |    1 |
| BUFG     |    1 |
+----------+------+


9. Black Boxes
--------------

+----------+------+
| Ref Name | Used |
+----------+------+


10. Instantiated Netlists
-------------------------

+----------+------+
| Ref Name | Used |
+----------+------+


